[
    {
        "_id": "5b0961ea3f5d802b6ce21009",
        "Name_Product": "Horsch Pronto",
        "Provider_ID": {
            "_id": "5b0961e93f5d802b6ce21008",
            "FirstName": "Johann",
            "LastName": "Meier",
            "Email": "johann@meier.com",
            "Address": "",
            "Town": "",
            "Password": "secret",
            "Image": "http://res.cloudinary.com/danurban/image/upload/v1514978166/homer_cv1xbe.png",
            "__v": 0
        },
        "Zip_code": 93053,
        "Address": "Edlingerstrasse 2",
        "Town": "Regensburg",
        "Product": "Drill",
        "Price": 20,
        "Category_1": "Accessory equipment",
        "Category_2": "Seeder",
        "Category_3": "Pneumatic",
        "HP": 0,
        "Model_year": 2015,
        "Operating_hours": null,
        "Brand": "Horsch",
        "Model": "Pronto DC",
        "Drive": "",
        "ISO_BUS": true,
        "Tyre_size": "",
        "Hopper_volume": 5000,
        "Weight": 6400,
        "Cylinder": null,
        "Energy": "",
        "Gearbox": "",
        "Sword_length": 0,
        "Hitch": "",
        "Working_width": 6,
        "Description": "Drilling wheat with high speed up to 20 km/h",
        "Longitude": 49.004336,
        "Latitude": 12.085978,
        "__v": 0
    },
    {
        "_id": "5b0961ea3f5d802b6ce2100a",
        "Name_Product": "Fendt 718",
        "Provider_ID": {
            "_id": "5b0961e93f5d802b6ce21008",
            "FirstName": "Johann",
            "LastName": "Meier",
            "Email": "johann@meier.com",
            "Address": "",
            "Town": "",
            "Password": "secret",
            "Image": "http://res.cloudinary.com/danurban/image/upload/v1514978166/homer_cv1xbe.png",
            "__v": 0
        },
        "Zip_code": 93047,
        "Address": "Hemauerstraße 12",
        "Town": "Regensburg",
        "Product": "Tractor",
        "Price": 30,
        "Category_1": "Motor Tractor",
        "Category_2": "Medium Tractor",
        "Category_3": "150-200",
        "HP": 180,
        "Model_year": 2011,
        "Operating_hours": 4800,
        "Brand": "Fendt",
        "Model": "718 Vario",
        "Drive": "4WD",
        "ISO_BUS": true,
        "Tyre_size": "710 75 R42",
        "Hopper_volume": null,
        "Weight": 7900,
        "Cylinder": 6,
        "Energy": "Diesel",
        "Gearbox": "Automatic",
        "Sword_length": 0,
        "Hitch": "3 Pt",
        "Working_width": 0,
        "Description": "Perfect for transport ",
        "Longitude": 49.006461,
        "Latitude": 12.086037,
        "__v": 0
    },
    {
        "_id": "5b0961ea3f5d802b6ce2100b",
        "Name_Product": "Chain Saw ",
        "Provider_ID": {
            "_id": "5b0961e93f5d802b6ce21008",
            "FirstName": "Johann",
            "LastName": "Meier",
            "Email": "johann@meier.com",
            "Address": "",
            "Town": "",
            "Password": "secret",
            "Image": "http://res.cloudinary.com/danurban/image/upload/v1514978166/homer_cv1xbe.png",
            "__v": 0
        },
        "Zip_code": 93049,
        "Address": "Villagestreet 3",
        "Town": "Regensburg",
        "Product": "Chain Saw",
        "Price": 5,
        "Category_1": "Tools",
        "Category_2": "Wood",
        "Category_3": "Chain saw",
        "HP": 0,
        "Model_year": 2014,
        "Operating_hours": 0,
        "Brand": "Stihl",
        "Model": "MS 231",
        "Drive": "",
        "ISO_BUS": false,
        "Tyre_size": "",
        "Hopper_volume": null,
        "Weight": 4.8,
        "Cylinder": 1,
        "Energy": "Gas",
        "Gearbox": "Automatic",
        "Sword_length": 35,
        "Hitch": "",
        "Working_width": 0,
        "Description": "Good saw for tree cutting",
        "Longitude": 48.999057,
        "Latitude": 12.101073,
        "__v": 0
    },
    {
        "_id": "5b0961ea3f5d802b6ce2100c",
        "Name_Product": "Driver",
        "Provider_ID": {
            "_id": "5b0961e93f5d802b6ce21008",
            "FirstName": "Johann",
            "LastName": "Meier",
            "Email": "johann@meier.com",
            "Address": "",
            "Town": "",
            "Password": "secret",
            "Image": "http://res.cloudinary.com/danurban/image/upload/v1514978166/homer_cv1xbe.png",
            "__v": 0
        },
        "Zip_code": 93058,
        "Address": "Agristree 3",
        "Town": "Regensburg",
        "Product": "Service",
        "Price": 15,
        "Category_1": "Service",
        "Category_2": "Field",
        "Category_3": "Tractor",
        "HP": 0,
        "Model_year": 1990,
        "Operating_hours": 0,
        "Brand": "",
        "Model": "",
        "Drive": "",
        "ISO_BUS": false,
        "Tyre_size": "",
        "Hopper_volume": null,
        "Weight": 85,
        "Cylinder": 0,
        "Energy": "",
        "Gearbox": "",
        "Sword_length": 0,
        "Hitch": "",
        "Working_width": 0,
        "Description": "I have a lot experience in combines and tractors. Working without limit. ",
        "Longitude": 49.999057,
        "Latitude": 12.098734,
        "__v": 0
    },
    {
        "_id": "5b0961ea3f5d802b6ce2100d",
        "Name_Product": "Horsch Pronto 7",
        "Provider_ID": {
            "_id": "5b0961e93f5d802b6ce21008",
            "FirstName": "Johann",
            "LastName": "Meier",
            "Email": "johann@meier.com",
            "Address": "",
            "Town": "",
            "Password": "secret",
            "Image": "http://res.cloudinary.com/danurban/image/upload/v1514978166/homer_cv1xbe.png",
            "__v": 0
        },
        "Zip_code": 93053,
        "Address": "Edlingerstrasse 2",
        "Town": "Regensburg",
        "Product": "Drill",
        "Price": 20,
        "Category_1": "Accessory equipment",
        "Category_2": "Seeder",
        "Category_3": "Pneumatic",
        "HP": 0,
        "Model_year": 2015,
        "Operating_hours": null,
        "Brand": "Horsch",
        "Model": "Pronto DC",
        "Drive": "",
        "ISO_BUS": true,
        "Tyre_size": "",
        "Hopper_volume": 5000,
        "Weight": 6400,
        "Cylinder": null,
        "Energy": "",
        "Gearbox": "",
        "Sword_length": 0,
        "Hitch": "",
        "Working_width": 6,
        "Description": "Drilling wheat with high speed up to 20 km/h",
        "Longitude": 49.094337,
        "Latitude": 12.185976,
        "__v": 0
    },
    {
        "_id": "5b0961ea3f5d802b6ce2100e",
        "Name_Product": "Fendt 718 7",
        "Provider_ID": {
            "_id": "5b0961e93f5d802b6ce21008",
            "FirstName": "Johann",
            "LastName": "Meier",
            "Email": "johann@meier.com",
            "Address": "",
            "Town": "",
            "Password": "secret",
            "Image": "http://res.cloudinary.com/danurban/image/upload/v1514978166/homer_cv1xbe.png",
            "__v": 0
        },
        "Zip_code": 93047,
        "Address": "Hemauerstraße 12",
        "Town": "Regensburg",
        "Product": "Tractor",
        "Price": 30,
        "Category_1": "Motor Tractor",
        "Category_2": "Medium Tractor",
        "Category_3": "150-200",
        "HP": 180,
        "Model_year": 2011,
        "Operating_hours": 4800,
        "Brand": "Fendt",
        "Model": "718 Vario",
        "Drive": "4WD",
        "ISO_BUS": true,
        "Tyre_size": "710 75 R42",
        "Hopper_volume": null,
        "Weight": 7900,
        "Cylinder": 6,
        "Energy": "Diesel",
        "Gearbox": "Automatic",
        "Sword_length": 0,
        "Hitch": "3 Pt",
        "Working_width": 0,
        "Description": "Perfect for transport ",
        "Longitude": 49.106465,
        "Latitude": 12.286032,
        "__v": 0
    },
    {
        "_id": "5b0961ea3f5d802b6ce2100f",
        "Name_Product": "Chain Saw 7",
        "Provider_ID": {
            "_id": "5b0961e93f5d802b6ce21008",
            "FirstName": "Johann",
            "LastName": "Meier",
            "Email": "johann@meier.com",
            "Address": "",
            "Town": "",
            "Password": "secret",
            "Image": "http://res.cloudinary.com/danurban/image/upload/v1514978166/homer_cv1xbe.png",
            "__v": 0
        },
        "Zip_code": 93049,
        "Address": "Villagestreet 3",
        "Town": "Regensburg",
        "Product": "Chain Saw",
        "Price": 5,
        "Category_1": "Tools",
        "Category_2": "Wood",
        "Category_3": "Chain saw",
        "HP": 0,
        "Model_year": 2014,
        "Operating_hours": 0,
        "Brand": "Stihl",
        "Model": "MS 231",
        "Drive": "",
        "ISO_BUS": false,
        "Tyre_size": "",
        "Hopper_volume": null,
        "Weight": 4.8,
        "Cylinder": 1,
        "Energy": "Gas",
        "Gearbox": "Automatic",
        "Sword_length": 35,
        "Hitch": "",
        "Working_width": 0,
        "Description": "Good saw for tree cutting",
        "Longitude": 48.999053,
        "Latitude": 12.101078,
        "__v": 0
    },
    {
        "_id": "5b0961ea3f5d802b6ce21010",
        "Name_Product": "Driver 7",
        "Provider_ID": {
            "_id": "5b0961e93f5d802b6ce21008",
            "FirstName": "Johann",
            "LastName": "Meier",
            "Email": "johann@meier.com",
            "Address": "",
            "Town": "",
            "Password": "secret",
            "Image": "http://res.cloudinary.com/danurban/image/upload/v1514978166/homer_cv1xbe.png",
            "__v": 0
        },
        "Zip_code": 93058,
        "Address": "Agristree 3",
        "Town": "Regensburg",
        "Product": "Service",
        "Price": 15,
        "Category_1": "Service",
        "Category_2": "Field",
        "Category_3": "Tractor",
        "HP": 0,
        "Model_year": 1990,
        "Operating_hours": 0,
        "Brand": "",
        "Model": "",
        "Drive": "",
        "ISO_BUS": false,
        "Tyre_size": "",
        "Hopper_volume": null,
        "Weight": 85,
        "Cylinder": 0,
        "Energy": "",
        "Gearbox": "",
        "Sword_length": 0,
        "Hitch": "",
        "Working_width": 0,
        "Description": "I have a lot experience in combines and tractors. Working without limit. ",
        "Longitude": 48.999157,
        "Latitude": 12.098834,
        "__v": 0
    },
    {
        "_id": "5b0961eb3f5d802b6ce21011",
        "Name_Product": "Horsch Pronto 6",
        "Provider_ID": {
            "_id": "5b0961e93f5d802b6ce21008",
            "FirstName": "Johann",
            "LastName": "Meier",
            "Email": "johann@meier.com",
            "Address": "",
            "Town": "",
            "Password": "secret",
            "Image": "http://res.cloudinary.com/danurban/image/upload/v1514978166/homer_cv1xbe.png",
            "__v": 0
        },
        "Zip_code": 93053,
        "Address": "Edlingerstrasse 2",
        "Town": "Regensburg",
        "Product": "Drill",
        "Price": 20,
        "Category_1": "Accessory equipment",
        "Category_2": "Seeder",
        "Category_3": "Pneumatic",
        "HP": 0,
        "Model_year": 2015,
        "Operating_hours": null,
        "Brand": "Horsch",
        "Model": "Pronto DC",
        "Drive": "",
        "ISO_BUS": true,
        "Tyre_size": "",
        "Hopper_volume": 5000,
        "Weight": 6400,
        "Cylinder": null,
        "Energy": "",
        "Gearbox": "",
        "Sword_length": 0,
        "Hitch": "",
        "Working_width": 6,
        "Description": "Drilling wheat with high speed up to 20 km/h",
        "Longitude": 49.004436,
        "Latitude": 12.085778,
        "__v": 0
    },
    {
        "_id": "5b0961eb3f5d802b6ce21012",
        "Name_Product": "Fendt 718 6",
        "Provider_ID": {
            "_id": "5b0961e93f5d802b6ce21008",
            "FirstName": "Johann",
            "LastName": "Meier",
            "Email": "johann@meier.com",
            "Address": "",
            "Town": "",
            "Password": "secret",
            "Image": "http://res.cloudinary.com/danurban/image/upload/v1514978166/homer_cv1xbe.png",
            "__v": 0
        },
        "Zip_code": 93047,
        "Address": "Hemauerstraße 12",
        "Town": "Regensburg",
        "Product": "Tractor",
        "Price": 30,
        "Category_1": "Motor Tractor",
        "Category_2": "Medium Tractor",
        "Category_3": "150-200",
        "HP": 180,
        "Model_year": 2011,
        "Operating_hours": 4800,
        "Brand": "Fendt",
        "Model": "718 Vario",
        "Drive": "4WD",
        "ISO_BUS": true,
        "Tyre_size": "710 75 R42",
        "Hopper_volume": null,
        "Weight": 7900,
        "Cylinder": 6,
        "Energy": "Diesel",
        "Gearbox": "Automatic",
        "Sword_length": 0,
        "Hitch": "3 Pt",
        "Working_width": 0,
        "Description": "Perfect for transport ",
        "Longitude": 49.016461,
        "Latitude": 12.086337,
        "__v": 0
    },
    {
        "_id": "5b0961eb3f5d802b6ce21013",
        "Name_Product": "Chain Saw 6",
        "Provider_ID": {
            "_id": "5b0961e93f5d802b6ce21008",
            "FirstName": "Johann",
            "LastName": "Meier",
            "Email": "johann@meier.com",
            "Address": "",
            "Town": "",
            "Password": "secret",
            "Image": "http://res.cloudinary.com/danurban/image/upload/v1514978166/homer_cv1xbe.png",
            "__v": 0
        },
        "Zip_code": 93049,
        "Address": "Villagestreet 3",
        "Town": "Regensburg",
        "Product": "Chain Saw",
        "Price": 5,
        "Category_1": "Tools",
        "Category_2": "Wood",
        "Category_3": "Chain saw",
        "HP": 0,
        "Model_year": 2014,
        "Operating_hours": 0,
        "Brand": "Stihl",
        "Model": "MS 231",
        "Drive": "",
        "ISO_BUS": false,
        "Tyre_size": "",
        "Hopper_volume": null,
        "Weight": 4.8,
        "Cylinder": 1,
        "Energy": "Gas",
        "Gearbox": "Automatic",
        "Sword_length": 35,
        "Hitch": "",
        "Working_width": 0,
        "Description": "Good saw for tree cutting",
        "Longitude": 48.899258,
        "Latitude": 12.901373,
        "__v": 0
    },
    {
        "_id": "5b0961eb3f5d802b6ce21014",
        "Name_Product": "Driver 6",
        "Provider_ID": {
            "_id": "5b0961e93f5d802b6ce21008",
            "FirstName": "Johann",
            "LastName": "Meier",
            "Email": "johann@meier.com",
            "Address": "",
            "Town": "",
            "Password": "secret",
            "Image": "http://res.cloudinary.com/danurban/image/upload/v1514978166/homer_cv1xbe.png",
            "__v": 0
        },
        "Zip_code": 93058,
        "Address": "Agristree 3",
        "Town": "Regensburg",
        "Product": "Service",
        "Price": 15,
        "Category_1": "Service",
        "Category_2": "Field",
        "Category_3": "Tractor",
        "HP": 0,
        "Model_year": 1990,
        "Operating_hours": 0,
        "Brand": "",
        "Model": "",
        "Drive": "",
        "ISO_BUS": false,
        "Tyre_size": "",
        "Hopper_volume": null,
        "Weight": 85,
        "Cylinder": 0,
        "Energy": "",
        "Gearbox": "",
        "Sword_length": 0,
        "Hitch": "",
        "Working_width": 0,
        "Description": "I have a lot experience in combines and tractors. Working without limit. ",
        "Longitude": 48.892157,
        "Latitude": 12.908424,
        "__v": 0
    },
    {
        "_id": "5b0961eb3f5d802b6ce21015",
        "Name_Product": "Horsch Pronto 5",
        "Provider_ID": {
            "_id": "5b0961e93f5d802b6ce21008",
            "FirstName": "Johann",
            "LastName": "Meier",
            "Email": "johann@meier.com",
            "Address": "",
            "Town": "",
            "Password": "secret",
            "Image": "http://res.cloudinary.com/danurban/image/upload/v1514978166/homer_cv1xbe.png",
            "__v": 0
        },
        "Zip_code": 93053,
        "Address": "Edlingerstrasse 2",
        "Town": "Regensburg",
        "Product": "Drill",
        "Price": 20,
        "Category_1": "Accessory equipment",
        "Category_2": "Seeder",
        "Category_3": "Pneumatic",
        "HP": 0,
        "Model_year": 2015,
        "Operating_hours": null,
        "Brand": "Horsch",
        "Model": "Pronto DC",
        "Drive": "",
        "ISO_BUS": true,
        "Tyre_size": "",
        "Hopper_volume": 5000,
        "Weight": 6400,
        "Cylinder": null,
        "Energy": "",
        "Gearbox": "",
        "Sword_length": 0,
        "Hitch": "",
        "Working_width": 6,
        "Description": "Drilling wheat with high speed up to 20 km/h",
        "Longitude": 49.004216,
        "Latitude": 12.085368,
        "__v": 0
    },
    {
        "_id": "5b0961eb3f5d802b6ce21016",
        "Name_Product": "Fendt 718 5",
        "Provider_ID": {
            "_id": "5b0961e93f5d802b6ce21008",
            "FirstName": "Johann",
            "LastName": "Meier",
            "Email": "johann@meier.com",
            "Address": "",
            "Town": "",
            "Password": "secret",
            "Image": "http://res.cloudinary.com/danurban/image/upload/v1514978166/homer_cv1xbe.png",
            "__v": 0
        },
        "Zip_code": 93047,
        "Address": "Hemauerstraße 12",
        "Town": "Regensburg",
        "Product": "Tractor",
        "Price": 30,
        "Category_1": "Motor Tractor",
        "Category_2": "Medium Tractor",
        "Category_3": "150-200",
        "HP": 180,
        "Model_year": 2011,
        "Operating_hours": 4800,
        "Brand": "Fendt",
        "Model": "718 Vario",
        "Drive": "4WD",
        "ISO_BUS": true,
        "Tyre_size": "710 75 R42",
        "Hopper_volume": null,
        "Weight": 7900,
        "Cylinder": 6,
        "Energy": "Diesel",
        "Gearbox": "Automatic",
        "Sword_length": 0,
        "Hitch": "3 Pt",
        "Working_width": 0,
        "Description": "Perfect for transport ",
        "Longitude": 49.001421,
        "Latitude": 12.087047,
        "__v": 0
    },
    {
        "_id": "5b0961eb3f5d802b6ce21017",
        "Name_Product": "Chain Saw 5",
        "Provider_ID": {
            "_id": "5b0961e93f5d802b6ce21008",
            "FirstName": "Johann",
            "LastName": "Meier",
            "Email": "johann@meier.com",
            "Address": "",
            "Town": "",
            "Password": "secret",
            "Image": "http://res.cloudinary.com/danurban/image/upload/v1514978166/homer_cv1xbe.png",
            "__v": 0
        },
        "Zip_code": 93049,
        "Address": "Villagestreet 3",
        "Town": "Regensburg",
        "Product": "Chain Saw",
        "Price": 5,
        "Category_1": "Tools",
        "Category_2": "Wood",
        "Category_3": "Chain saw",
        "HP": 0,
        "Model_year": 2014,
        "Operating_hours": 0,
        "Brand": "Stihl",
        "Model": "MS 231",
        "Drive": "",
        "ISO_BUS": false,
        "Tyre_size": "",
        "Hopper_volume": null,
        "Weight": 4.8,
        "Cylinder": 1,
        "Energy": "Gas",
        "Gearbox": "Automatic",
        "Sword_length": 35,
        "Hitch": "",
        "Working_width": 0,
        "Description": "Good saw for tree cutting",
        "Longitude": 48.995027,
        "Latitude": 12.101943,
        "__v": 0
    },
    {
        "_id": "5b0961ec3f5d802b6ce21018",
        "Name_Product": "Driver 5",
        "Provider_ID": {
            "_id": "5b0961e93f5d802b6ce21008",
            "FirstName": "Johann",
            "LastName": "Meier",
            "Email": "johann@meier.com",
            "Address": "",
            "Town": "",
            "Password": "secret",
            "Image": "http://res.cloudinary.com/danurban/image/upload/v1514978166/homer_cv1xbe.png",
            "__v": 0
        },
        "Zip_code": 93058,
        "Address": "Agristree 3",
        "Town": "Regensburg",
        "Product": "Service",
        "Price": 15,
        "Category_1": "Service",
        "Category_2": "Field",
        "Category_3": "Tractor",
        "HP": 0,
        "Model_year": 1990,
        "Operating_hours": 0,
        "Brand": "",
        "Model": "",
        "Drive": "",
        "ISO_BUS": false,
        "Tyre_size": "",
        "Hopper_volume": null,
        "Weight": 85,
        "Cylinder": 0,
        "Energy": "",
        "Gearbox": "",
        "Sword_length": 0,
        "Hitch": "",
        "Working_width": 0,
        "Description": "I have a lot experience in combines and tractors. Working without limit. ",
        "Longitude": 49.999717,
        "Latitude": 12.097784,
        "__v": 0
    },
    {
        "_id": "5b0961ec3f5d802b6ce21019",
        "Name_Product": "Horsch Pronto 4",
        "Provider_ID": {
            "_id": "5b0961e93f5d802b6ce21008",
            "FirstName": "Johann",
            "LastName": "Meier",
            "Email": "johann@meier.com",
            "Address": "",
            "Town": "",
            "Password": "secret",
            "Image": "http://res.cloudinary.com/danurban/image/upload/v1514978166/homer_cv1xbe.png",
            "__v": 0
        },
        "Zip_code": 93053,
        "Address": "Edlingerstrasse 2",
        "Town": "Regensburg",
        "Product": "Drill",
        "Price": 20,
        "Category_1": "Accessory equipment",
        "Category_2": "Seeder",
        "Category_3": "Pneumatic",
        "HP": 0,
        "Model_year": 2015,
        "Operating_hours": null,
        "Brand": "Horsch",
        "Model": "Pronto DC",
        "Drive": "",
        "ISO_BUS": true,
        "Tyre_size": "",
        "Hopper_volume": 5000,
        "Weight": 6400,
        "Cylinder": null,
        "Energy": "",
        "Gearbox": "",
        "Sword_length": 0,
        "Hitch": "",
        "Working_width": 6,
        "Description": "Drilling wheat with high speed up to 20 km/h",
        "Longitude": 49.002366,
        "Latitude": 12.082938,
        "__v": 0
    },
    {
        "_id": "5b0961ec3f5d802b6ce2101a",
        "Name_Product": "Fendt 718 4",
        "Provider_ID": {
            "_id": "5b0961e93f5d802b6ce21008",
            "FirstName": "Johann",
            "LastName": "Meier",
            "Email": "johann@meier.com",
            "Address": "",
            "Town": "",
            "Password": "secret",
            "Image": "http://res.cloudinary.com/danurban/image/upload/v1514978166/homer_cv1xbe.png",
            "__v": 0
        },
        "Zip_code": 93047,
        "Address": "Hemauerstraße 12",
        "Town": "Regensburg",
        "Product": "Tractor",
        "Price": 30,
        "Category_1": "Motor Tractor",
        "Category_2": "Medium Tractor",
        "Category_3": "150-200",
        "HP": 180,
        "Model_year": 2011,
        "Operating_hours": 4800,
        "Brand": "Fendt",
        "Model": "718 Vario",
        "Drive": "4WD",
        "ISO_BUS": true,
        "Tyre_size": "710 75 R42",
        "Hopper_volume": null,
        "Weight": 7900,
        "Cylinder": 6,
        "Energy": "Diesel",
        "Gearbox": "Automatic",
        "Sword_length": 0,
        "Hitch": "3 Pt",
        "Working_width": 0,
        "Description": "Perfect for transport ",
        "Longitude": 49.005351,
        "Latitude": 12.086126,
        "__v": 0
    },
    {
        "_id": "5b0961ec3f5d802b6ce2101b",
        "Name_Product": "Chain Saw 4",
        "Provider_ID": {
            "_id": "5b0961e93f5d802b6ce21008",
            "FirstName": "Johann",
            "LastName": "Meier",
            "Email": "johann@meier.com",
            "Address": "",
            "Town": "",
            "Password": "secret",
            "Image": "http://res.cloudinary.com/danurban/image/upload/v1514978166/homer_cv1xbe.png",
            "__v": 0
        },
        "Zip_code": 93049,
        "Address": "Villagestreet 3",
        "Town": "Regensburg",
        "Product": "Chain Saw",
        "Price": 5,
        "Category_1": "Tools",
        "Category_2": "Wood",
        "Category_3": "Chain saw",
        "HP": 0,
        "Model_year": 2014,
        "Operating_hours": 0,
        "Brand": "Stihl",
        "Model": "MS 231",
        "Drive": "",
        "ISO_BUS": false,
        "Tyre_size": "",
        "Hopper_volume": null,
        "Weight": 4.8,
        "Cylinder": 1,
        "Energy": "Gas",
        "Gearbox": "Automatic",
        "Sword_length": 35,
        "Hitch": "",
        "Working_width": 0,
        "Description": "Good saw for tree cutting",
        "Longitude": 48.999168,
        "Latitude": 12.101184,
        "__v": 0
    },
    {
        "_id": "5b0961ec3f5d802b6ce2101c",
        "Name_Product": "Driver 4",
        "Provider_ID": {
            "_id": "5b0961e93f5d802b6ce21008",
            "FirstName": "Johann",
            "LastName": "Meier",
            "Email": "johann@meier.com",
            "Address": "",
            "Town": "",
            "Password": "secret",
            "Image": "http://res.cloudinary.com/danurban/image/upload/v1514978166/homer_cv1xbe.png",
            "__v": 0
        },
        "Zip_code": 93058,
        "Address": "Agristree 3",
        "Town": "Regensburg",
        "Product": "Service",
        "Price": 15,
        "Category_1": "Service",
        "Category_2": "Field",
        "Category_3": "Tractor",
        "HP": 0,
        "Model_year": 1990,
        "Operating_hours": 0,
        "Brand": "",
        "Model": "",
        "Drive": "",
        "ISO_BUS": false,
        "Tyre_size": "",
        "Hopper_volume": null,
        "Weight": 85,
        "Cylinder": 0,
        "Energy": "",
        "Gearbox": "",
        "Sword_length": 0,
        "Hitch": "",
        "Working_width": 0,
        "Description": "I have a lot experience in combines and tractors. Working without limit. ",
        "Longitude": 48.991117,
        "Latitude": 12.098111,
        "__v": 0
    },
    {
        "_id": "5b0961ec3f5d802b6ce2101d",
        "Name_Product": "Horsch Pronto 3",
        "Provider_ID": {
            "_id": "5b0961e93f5d802b6ce21008",
            "FirstName": "Johann",
            "LastName": "Meier",
            "Email": "johann@meier.com",
            "Address": "",
            "Town": "",
            "Password": "secret",
            "Image": "http://res.cloudinary.com/danurban/image/upload/v1514978166/homer_cv1xbe.png",
            "__v": 0
        },
        "Zip_code": 93053,
        "Address": "Edlingerstrasse 2",
        "Town": "Regensburg",
        "Product": "Drill",
        "Price": 20,
        "Category_1": "Accessory equipment",
        "Category_2": "Seeder",
        "Category_3": "Pneumatic",
        "HP": 0,
        "Model_year": 2015,
        "Operating_hours": null,
        "Brand": "Horsch",
        "Model": "Pronto DC",
        "Drive": "",
        "ISO_BUS": true,
        "Tyre_size": "",
        "Hopper_volume": 5000,
        "Weight": 6400,
        "Cylinder": null,
        "Energy": "",
        "Gearbox": "",
        "Sword_length": 0,
        "Hitch": "",
        "Working_width": 6,
        "Description": "Drilling wheat with high speed up to 20 km/h",
        "Longitude": 49.004222,
        "Latitude": 12.085222,
        "__v": 0
    },
    {
        "_id": "5b0961ec3f5d802b6ce2101e",
        "Name_Product": "Fendt 718 3",
        "Provider_ID": {
            "_id": "5b0961e93f5d802b6ce21008",
            "FirstName": "Johann",
            "LastName": "Meier",
            "Email": "johann@meier.com",
            "Address": "",
            "Town": "",
            "Password": "secret",
            "Image": "http://res.cloudinary.com/danurban/image/upload/v1514978166/homer_cv1xbe.png",
            "__v": 0
        },
        "Zip_code": 93047,
        "Address": "Hemauerstraße 12",
        "Town": "Regensburg",
        "Product": "Tractor",
        "Price": 30,
        "Category_1": "Motor Tractor",
        "Category_2": "Medium Tractor",
        "Category_3": "150-200",
        "HP": 180,
        "Model_year": 2011,
        "Operating_hours": 4800,
        "Brand": "Fendt",
        "Model": "718 Vario",
        "Drive": "4WD",
        "ISO_BUS": true,
        "Tyre_size": "710 75 R42",
        "Hopper_volume": null,
        "Weight": 7900,
        "Cylinder": 6,
        "Energy": "Diesel",
        "Gearbox": "Automatic",
        "Sword_length": 0,
        "Hitch": "3 Pt",
        "Working_width": 0,
        "Description": "Perfect for transport ",
        "Longitude": 49.006333,
        "Latitude": 12.086333,
        "__v": 0
    },
    {
        "_id": "5b0961ec3f5d802b6ce2101f",
        "Name_Product": "Chain Saw 3",
        "Provider_ID": {
            "_id": "5b0961e93f5d802b6ce21008",
            "FirstName": "Johann",
            "LastName": "Meier",
            "Email": "johann@meier.com",
            "Address": "",
            "Town": "",
            "Password": "secret",
            "Image": "http://res.cloudinary.com/danurban/image/upload/v1514978166/homer_cv1xbe.png",
            "__v": 0
        },
        "Zip_code": 93049,
        "Address": "Villagestreet 3",
        "Town": "Regensburg",
        "Product": "Chain Saw",
        "Price": 5,
        "Category_1": "Tools",
        "Category_2": "Wood",
        "Category_3": "Chain saw",
        "HP": 0,
        "Model_year": 2014,
        "Operating_hours": 0,
        "Brand": "Stihl",
        "Model": "MS 231",
        "Drive": "",
        "ISO_BUS": false,
        "Tyre_size": "",
        "Hopper_volume": null,
        "Weight": 4.8,
        "Cylinder": 1,
        "Energy": "Gas",
        "Gearbox": "Automatic",
        "Sword_length": 35,
        "Hitch": "",
        "Working_width": 0,
        "Description": "Good saw for tree cutting",
        "Longitude": 48.999444,
        "Latitude": 12.101444,
        "__v": 0
    },
    {
        "_id": "5b0961ed3f5d802b6ce21020",
        "Name_Product": "Driver 3",
        "Provider_ID": {
            "_id": "5b0961e93f5d802b6ce21008",
            "FirstName": "Johann",
            "LastName": "Meier",
            "Email": "johann@meier.com",
            "Address": "",
            "Town": "",
            "Password": "secret",
            "Image": "http://res.cloudinary.com/danurban/image/upload/v1514978166/homer_cv1xbe.png",
            "__v": 0
        },
        "Zip_code": 93058,
        "Address": "Agristree 3",
        "Town": "Regensburg",
        "Product": "Service",
        "Price": 15,
        "Category_1": "Service",
        "Category_2": "Field",
        "Category_3": "Tractor",
        "HP": 0,
        "Model_year": 1990,
        "Operating_hours": 0,
        "Brand": "",
        "Model": "",
        "Drive": "",
        "ISO_BUS": false,
        "Tyre_size": "",
        "Hopper_volume": null,
        "Weight": 85,
        "Cylinder": 0,
        "Energy": "",
        "Gearbox": "",
        "Sword_length": 0,
        "Hitch": "",
        "Working_width": 0,
        "Description": "I have a lot experience in combines and tractors. Working without limit. ",
        "Longitude": 48.999555,
        "Latitude": 12.098555,
        "__v": 0
    },
    {
        "_id": "5b0961ed3f5d802b6ce21021",
        "Name_Product": "Horsch Pronto 2",
        "Provider_ID": {
            "_id": "5b0961e93f5d802b6ce21008",
            "FirstName": "Johann",
            "LastName": "Meier",
            "Email": "johann@meier.com",
            "Address": "",
            "Town": "",
            "Password": "secret",
            "Image": "http://res.cloudinary.com/danurban/image/upload/v1514978166/homer_cv1xbe.png",
            "__v": 0
        },
        "Zip_code": 93053,
        "Address": "Edlingerstrasse 2",
        "Town": "Regensburg",
        "Product": "Drill",
        "Price": 20,
        "Category_1": "Accessory equipment",
        "Category_2": "Seeder",
        "Category_3": "Pneumatic",
        "HP": 0,
        "Model_year": 2015,
        "Operating_hours": null,
        "Brand": "Horsch",
        "Model": "Pronto DC",
        "Drive": "",
        "ISO_BUS": true,
        "Tyre_size": "",
        "Hopper_volume": 5000,
        "Weight": 6400,
        "Cylinder": null,
        "Energy": "",
        "Gearbox": "",
        "Sword_length": 0,
        "Hitch": "",
        "Working_width": 6,
        "Description": "Drilling wheat with high speed up to 20 km/h",
        "Longitude": 49.004666,
        "Latitude": 12.085666,
        "__v": 0
    },
    {
        "_id": "5b0961ed3f5d802b6ce21022",
        "Name_Product": "Fendt 718 2",
        "Provider_ID": {
            "_id": "5b0961e93f5d802b6ce21008",
            "FirstName": "Johann",
            "LastName": "Meier",
            "Email": "johann@meier.com",
            "Address": "",
            "Town": "",
            "Password": "secret",
            "Image": "http://res.cloudinary.com/danurban/image/upload/v1514978166/homer_cv1xbe.png",
            "__v": 0
        },
        "Zip_code": 93047,
        "Address": "Hemauerstraße 12",
        "Town": "Regensburg",
        "Product": "Tractor",
        "Price": 30,
        "Category_1": "Motor Tractor",
        "Category_2": "Medium Tractor",
        "Category_3": "150-200",
        "HP": 180,
        "Model_year": 2011,
        "Operating_hours": 4800,
        "Brand": "Fendt",
        "Model": "718 Vario",
        "Drive": "4WD",
        "ISO_BUS": true,
        "Tyre_size": "710 75 R42",
        "Hopper_volume": null,
        "Weight": 7900,
        "Cylinder": 6,
        "Energy": "Diesel",
        "Gearbox": "Automatic",
        "Sword_length": 0,
        "Hitch": "3 Pt",
        "Working_width": 0,
        "Description": "Perfect for transport ",
        "Longitude": 49.006777,
        "Latitude": 12.086777,
        "__v": 0
    },
    {
        "_id": "5b0961ed3f5d802b6ce21023",
        "Name_Product": "Chain Saw 2",
        "Provider_ID": {
            "_id": "5b0961e93f5d802b6ce21008",
            "FirstName": "Johann",
            "LastName": "Meier",
            "Email": "johann@meier.com",
            "Address": "",
            "Town": "",
            "Password": "secret",
            "Image": "http://res.cloudinary.com/danurban/image/upload/v1514978166/homer_cv1xbe.png",
            "__v": 0
        },
        "Zip_code": 93049,
        "Address": "Villagestreet 3",
        "Town": "Regensburg",
        "Product": "Chain Saw",
        "Price": 5,
        "Category_1": "Tools",
        "Category_2": "Wood",
        "Category_3": "Chain saw",
        "HP": 0,
        "Model_year": 2014,
        "Operating_hours": 0,
        "Brand": "Stihl",
        "Model": "MS 231",
        "Drive": "",
        "ISO_BUS": false,
        "Tyre_size": "",
        "Hopper_volume": null,
        "Weight": 4.8,
        "Cylinder": 1,
        "Energy": "Gas",
        "Gearbox": "Automatic",
        "Sword_length": 35,
        "Hitch": "",
        "Working_width": 0,
        "Description": "Good saw for tree cutting",
        "Longitude": 48.999888,
        "Latitude": 12.101888,
        "__v": 0
    },
    {
        "_id": "5b0961ed3f5d802b6ce21024",
        "Name_Product": "Driver 2",
        "Provider_ID": {
            "_id": "5b0961e93f5d802b6ce21008",
            "FirstName": "Johann",
            "LastName": "Meier",
            "Email": "johann@meier.com",
            "Address": "",
            "Town": "",
            "Password": "secret",
            "Image": "http://res.cloudinary.com/danurban/image/upload/v1514978166/homer_cv1xbe.png",
            "__v": 0
        },
        "Zip_code": 93058,
        "Address": "Agristree 3",
        "Town": "Regensburg",
        "Product": "Service",
        "Price": 15,
        "Category_1": "Service",
        "Category_2": "Field",
        "Category_3": "Tractor",
        "HP": 0,
        "Model_year": 1990,
        "Operating_hours": 0,
        "Brand": "",
        "Model": "",
        "Drive": "",
        "ISO_BUS": false,
        "Tyre_size": "",
        "Hopper_volume": null,
        "Weight": 85,
        "Cylinder": 0,
        "Energy": "",
        "Gearbox": "",
        "Sword_length": 0,
        "Hitch": "",
        "Working_width": 0,
        "Description": "I have a lot experience in combines and tractors. Working without limit. ",
        "Longitude": 48.999999,
        "Latitude": 12.098999,
        "__v": 0
    },
    {
        "_id": "5b0961ed3f5d802b6ce21025",
        "Name_Product": "Horsch Pronto 1",
        "Provider_ID": {
            "_id": "5b0961e93f5d802b6ce21008",
            "FirstName": "Johann",
            "LastName": "Meier",
            "Email": "johann@meier.com",
            "Address": "",
            "Town": "",
            "Password": "secret",
            "Image": "http://res.cloudinary.com/danurban/image/upload/v1514978166/homer_cv1xbe.png",
            "__v": 0
        },
        "Zip_code": 93053,
        "Address": "Edlingerstrasse 2",
        "Town": "Regensburg",
        "Product": "Drill",
        "Price": 20,
        "Category_1": "Accessory equipment",
        "Category_2": "Seeder",
        "Category_3": "Pneumatic",
        "HP": 0,
        "Model_year": 2015,
        "Operating_hours": null,
        "Brand": "Horsch",
        "Model": "Pronto DC",
        "Drive": "",
        "ISO_BUS": true,
        "Tyre_size": "",
        "Hopper_volume": 5000,
        "Weight": 6400,
        "Cylinder": null,
        "Energy": "",
        "Gearbox": "",
        "Sword_length": 0,
        "Hitch": "",
        "Working_width": 6,
        "Description": "Drilling wheat with high speed up to 20 km/h",
        "Longitude": 49.004,
        "Latitude": 12.085,
        "__v": 0
    },
    {
        "_id": "5b0961ed3f5d802b6ce21026",
        "Name_Product": "Fendt 718 1",
        "Provider_ID": {
            "_id": "5b0961e93f5d802b6ce21008",
            "FirstName": "Johann",
            "LastName": "Meier",
            "Email": "johann@meier.com",
            "Address": "",
            "Town": "",
            "Password": "secret",
            "Image": "http://res.cloudinary.com/danurban/image/upload/v1514978166/homer_cv1xbe.png",
            "__v": 0
        },
        "Zip_code": 93047,
        "Address": "Hemauerstraße 12",
        "Town": "Regensburg",
        "Product": "Tractor",
        "Price": 30,
        "Category_1": "Motor Tractor",
        "Category_2": "Medium Tractor",
        "Category_3": "150-200",
        "HP": 180,
        "Model_year": 2011,
        "Operating_hours": 4800,
        "Brand": "Fendt",
        "Model": "718 Vario",
        "Drive": "4WD",
        "ISO_BUS": true,
        "Tyre_size": "710 75 R42",
        "Hopper_volume": null,
        "Weight": 7900,
        "Cylinder": 6,
        "Energy": "Diesel",
        "Gearbox": "Automatic",
        "Sword_length": 0,
        "Hitch": "3 Pt",
        "Working_width": 0,
        "Description": "Perfect for transport ",
        "Longitude": 49.006123,
        "Latitude": 12.086123,
        "__v": 0
    },
    {
        "_id": "5b0961ed3f5d802b6ce21027",
        "Name_Product": "Chain Saw 1",
        "Provider_ID": {
            "_id": "5b0961e93f5d802b6ce21008",
            "FirstName": "Johann",
            "LastName": "Meier",
            "Email": "johann@meier.com",
            "Address": "",
            "Town": "",
            "Password": "secret",
            "Image": "http://res.cloudinary.com/danurban/image/upload/v1514978166/homer_cv1xbe.png",
            "__v": 0
        },
        "Zip_code": 93049,
        "Address": "Villagestreet 3",
        "Town": "Regensburg",
        "Product": "Chain Saw",
        "Price": 5,
        "Category_1": "Tools",
        "Category_2": "Wood",
        "Category_3": "Chain saw",
        "HP": 0,
        "Model_year": 2014,
        "Operating_hours": 0,
        "Brand": "Stihl",
        "Model": "MS 231",
        "Drive": "",
        "ISO_BUS": false,
        "Tyre_size": "",
        "Hopper_volume": null,
        "Weight": 4.8,
        "Cylinder": 1,
        "Energy": "Gas",
        "Gearbox": "Automatic",
        "Sword_length": 35,
        "Hitch": "",
        "Working_width": 0,
        "Description": "Good saw for tree cutting",
        "Longitude": 48.999124,
        "Latitude": 12.101124,
        "__v": 0
    },
    {
        "_id": "5b0961ed3f5d802b6ce21028",
        "Name_Product": "Driver 1",
        "Provider_ID": {
            "_id": "5b0961e93f5d802b6ce21008",
            "FirstName": "Johann",
            "LastName": "Meier",
            "Email": "johann@meier.com",
            "Address": "",
            "Town": "",
            "Password": "secret",
            "Image": "http://res.cloudinary.com/danurban/image/upload/v1514978166/homer_cv1xbe.png",
            "__v": 0
        },
        "Zip_code": 93058,
        "Address": "Agristree 3",
        "Town": "Regensburg",
        "Product": "Service",
        "Price": 15,
        "Category_1": "Service",
        "Category_2": "Field",
        "Category_3": "Tractor",
        "HP": 0,
        "Model_year": 1990,
        "Operating_hours": 0,
        "Brand": "",
        "Model": "",
        "Drive": "",
        "ISO_BUS": false,
        "Tyre_size": "",
        "Hopper_volume": null,
        "Weight": 85,
        "Cylinder": 0,
        "Energy": "",
        "Gearbox": "",
        "Sword_length": 0,
        "Hitch": "",
        "Working_width": 0,
        "Description": "I have a lot experience in combines and tractors. Working without limit. ",
        "Longitude": 49.999125,
        "Latitude": 12.098125,
        "__v": 0
    }
]